{
  "consumes": [
    "application/json",
    "multipart/form-data"
  ],
  "produces": [
    "application/json"
  ],
  "schemes": [
    "http",
    "https"
  ],
  "swagger": "2.0",
  "info": {
    "description": "Шапка ты где?!",
    "title": "Geocode API.",
    "version": "1.0.0"
  },
  "basePath": "/",
  "paths": {
    "/api/address/geocode": {
      "post": {
        "security": [
          {
            "Bearer": [
              "[]"
            ]
          }
        ],
        "tags": [
          "geolocate"
        ],
        "summary": "Поиск ближайшших адресов по координатам.",
        "operationId": "GeocodeRequest",
        "parameters": [
          {
            "description": "пример запроса: {\"lat\":\"61.9484\",\"lon\":\"130.2965\"}",
            "name": "GeocodeRequest",
            "in": "body",
            "schema": {
              "description": "пример запроса: {\"lat\":\"61.9484\",\"lon\":\"130.2965\"}",
              "type": "object",
              "$ref": "#/definitions/GeocodeRequest"
            }
          }
        ],
        "responses": {
          "200": {
            "description": "GeocodeResponse",
            "schema": {
              "$ref": "#/definitions/GeocodeResponse"
            }
          },
          "400": {
            "description": " Bad request"
          },
          "500": {
            "description": " Internal server error"
          }
        }
      }
    },
    "/api/address/search": {
      "post": {
        "security": [
          {
            "Bearer": [
              "[]"
            ]
          }
        ],
        "tags": [
          "searchAddress"
        ],
        "summary": "Поиск адреса.",
        "operationId": "SearchRequest",
        "parameters": [
          {
            "description": "пример запроса: {\"query\":\"москва\"}",
            "name": "SearchRequest",
            "in": "body",
            "schema": {
              "description": "пример запроса: {\"query\":\"москва\"}",
              "type": "object",
              "$ref": "#/definitions/SearchRequest"
            }
          }
        ],
        "responses": {
          "200": {
            "description": "SearchResponse",
            "schema": {
              "$ref": "#/definitions/SearchResponse"
            }
          },
          "400": {
            "description": " Bad request"
          },
          "500": {
            "description": " Internal server error"
          }
        }
      }
    }
  },
  "definitions": {
    "Address": {
      "type": "object",
      "properties": {
        "lat": {
          "type": "string",
          "x-go-name": "Lat"
        },
        "lon": {
          "type": "string",
          "x-go-name": "Lon"
        },
        "result": {
          "type": "string",
          "x-go-name": "Result"
        }
      },
      "x-go-package": "geo/internal/entities/geoEntity"
    },
    "GeocodeRequest": {
      "description": "Bearer: []",
      "type": "object",
      "title": "GeocodeRequest security:",
      "required": [
        "Coordinates"
      ],
      "properties": {
        "lat": {
          "type": "string",
          "x-go-name": "Lat"
        },
        "lng": {
          "type": "string",
          "x-go-name": "Lng"
        }
      },
      "x-go-package": "geo/internal/entities/geoEntity"
    },
    "GeocodeResponse": {
      "type": "object",
      "required": [
        "addresses"
      ],
      "properties": {
        "addresses": {
          "type": "array",
          "items": {
            "$ref": "#/definitions/Address"
          },
          "x-go-name": "Addresses"
        }
      },
      "x-go-package": "geo/static"
    },
    "SearchRequest": {
      "description": "Bearer: []",
      "type": "object",
      "title": "SearchRequest security:",
      "required": [
        "query"
      ],
      "properties": {
        "query": {
          "description": "in: body",
          "type": "string",
          "x-go-name": "Query"
        }
      },
      "x-go-package": "geo/static"
    },
    "SearchResponse": {
      "type": "object",
      "required": [
        "addresses"
      ],
      "properties": {
        "addresses": {
          "type": "array",
          "items": {
            "$ref": "#/definitions/Address"
          },
          "x-go-name": "Addresses"
        }
      },
      "x-go-package": "geo/static"
    }
  },
  "securityDefinitions": {
    "Bearer": {
      "type": "apiKey",
      "name": "Authorization",
      "in": "header"
    }
  }
}