172.28.0.1 - - [02/Apr/2024:17:25:00 +0000] "GET /swagger HTTP/1.1" 502 157 "-" "Mozilla/5.0 (X11; Ubuntu; Linux x86_64; rv:124.0) Gecko/20100101 Firefox/124.0"
172.28.0.1 - - [02/Apr/2024:17:25:22 +0000] "GET /swagger HTTP/1.1" 502 157 "-" "Mozilla/5.0 (X11; Ubuntu; Linux x86_64; rv:124.0) Gecko/20100101 Firefox/124.0"
172.23.0.1 - - [03/Apr/2024:09:48:34 +0000] "GET /swagger HTTP/1.1" 502 157 "-" "Mozilla/5.0 (X11; Ubuntu; Linux x86_64; rv:124.0) Gecko/20100101 Firefox/124.0"
172.23.0.1 - - [03/Apr/2024:09:48:35 +0000] "GET /favicon.ico HTTP/1.1" 502 157 "http://localhost:8080/swagger" "Mozilla/5.0 (X11; Ubuntu; Linux x86_64; rv:124.0) Gecko/20100101 Firefox/124.0"
172.23.0.1 - - [03/Apr/2024:09:48:39 +0000] "GET /swagger HTTP/1.1" 502 157 "-" "Mozilla/5.0 (X11; Ubuntu; Linux x86_64; rv:124.0) Gecko/20100101 Firefox/124.0"
172.23.0.1 - - [03/Apr/2024:09:49:50 +0000] "GET /swagger HTTP/1.1" 502 157 "-" "Mozilla/5.0 (X11; Ubuntu; Linux x86_64; rv:124.0) Gecko/20100101 Firefox/124.0"
172.23.0.1 - - [03/Apr/2024:09:50:54 +0000] "GET / HTTP/1.1" 502 157 "-" "Mozilla/5.0 (X11; Ubuntu; Linux x86_64; rv:124.0) Gecko/20100101 Firefox/124.0"
172.23.0.1 - - [03/Apr/2024:09:51:02 +0000] "GET /search HTTP/1.1" 502 157 "-" "Mozilla/5.0 (X11; Ubuntu; Linux x86_64; rv:124.0) Gecko/20100101 Firefox/124.0"
172.24.0.1 - - [03/Apr/2024:10:08:59 +0000] "GET /search HTTP/1.1" 502 157 "-" "Mozilla/5.0 (X11; Ubuntu; Linux x86_64; rv:124.0) Gecko/20100101 Firefox/124.0"
172.24.0.1 - - [03/Apr/2024:10:09:02 +0000] "GET /search HTTP/1.1" 502 157 "-" "Mozilla/5.0 (X11; Ubuntu; Linux x86_64; rv:124.0) Gecko/20100101 Firefox/124.0"
172.24.0.1 - - [03/Apr/2024:10:09:04 +0000] "GET /swagger HTTP/1.1" 502 157 "-" "Mozilla/5.0 (X11; Ubuntu; Linux x86_64; rv:124.0) Gecko/20100101 Firefox/124.0"
172.24.0.1 - - [03/Apr/2024:10:09:05 +0000] "GET /swagger HTTP/1.1" 502 157 "-" "Mozilla/5.0 (X11; Ubuntu; Linux x86_64; rv:124.0) Gecko/20100101 Firefox/124.0"
172.24.0.1 - - [03/Apr/2024:10:09:06 +0000] "GET /swagger HTTP/1.1" 502 157 "-" "Mozilla/5.0 (X11; Ubuntu; Linux x86_64; rv:124.0) Gecko/20100101 Firefox/124.0"
172.25.0.1 - - [03/Apr/2024:10:26:19 +0000] "GET /search HTTP/1.1" 404 153 "-" "Mozilla/5.0 (X11; Ubuntu; Linux x86_64; rv:124.0) Gecko/20100101 Firefox/124.0"
172.25.0.1 - - [03/Apr/2024:10:26:24 +0000] "GET /swagger HTTP/1.1" 502 157 "-" "Mozilla/5.0 (X11; Ubuntu; Linux x86_64; rv:124.0) Gecko/20100101 Firefox/124.0"
172.25.0.1 - - [03/Apr/2024:10:26:26 +0000] "GET /swagger HTTP/1.1" 502 157 "-" "Mozilla/5.0 (X11; Ubuntu; Linux x86_64; rv:124.0) Gecko/20100101 Firefox/124.0"
172.26.0.1 - - [03/Apr/2024:10:31:46 +0000] "GET /swagger HTTP/1.1" 502 157 "-" "Mozilla/5.0 (X11; Ubuntu; Linux x86_64; rv:124.0) Gecko/20100101 Firefox/124.0"
172.26.0.1 - - [03/Apr/2024:10:31:48 +0000] "GET /swagger HTTP/1.1" 502 157 "-" "Mozilla/5.0 (X11; Ubuntu; Linux x86_64; rv:124.0) Gecko/20100101 Firefox/124.0"
172.26.0.1 - - [03/Apr/2024:10:32:03 +0000] "GET /api/address/search HTTP/1.1" 502 157 "-" "Mozilla/5.0 (X11; Ubuntu; Linux x86_64; rv:124.0) Gecko/20100101 Firefox/124.0"
172.28.0.1 - - [03/Apr/2024:13:22:27 +0000] "GET /api HTTP/1.1" 404 153 "-" "Mozilla/5.0 (X11; Ubuntu; Linux x86_64; rv:124.0) Gecko/20100101 Firefox/124.0"
172.28.0.1 - - [03/Apr/2024:13:22:28 +0000] "GET /favicon.ico HTTP/1.1" 404 153 "http://localhost:8080/api" "Mozilla/5.0 (X11; Ubuntu; Linux x86_64; rv:124.0) Gecko/20100101 Firefox/124.0"
172.29.0.1 - - [03/Apr/2024:13:24:00 +0000] "GET /api HTTP/1.1" 200 14 "-" "Mozilla/5.0 (X11; Ubuntu; Linux x86_64; rv:124.0) Gecko/20100101 Firefox/124.0"
172.29.0.1 - - [03/Apr/2024:13:24:00 +0000] "GET /favicon.ico HTTP/1.1" 404 153 "http://localhost:8080/api" "Mozilla/5.0 (X11; Ubuntu; Linux x86_64; rv:124.0) Gecko/20100101 Firefox/124.0"
172.29.0.1 - - [03/Apr/2024:13:24:06 +0000] "GET /api HTTP/1.1" 200 14 "-" "Mozilla/5.0 (X11; Ubuntu; Linux x86_64; rv:124.0) Gecko/20100101 Firefox/124.0"
172.29.0.1 - - [03/Apr/2024:13:24:07 +0000] "GET /favicon.ico HTTP/1.1" 404 153 "http://localhost:8080/api" "Mozilla/5.0 (X11; Ubuntu; Linux x86_64; rv:124.0) Gecko/20100101 Firefox/124.0"
172.29.0.1 - - [03/Apr/2024:13:24:07 +0000] "GET /api HTTP/1.1" 200 14 "-" "Mozilla/5.0 (X11; Ubuntu; Linux x86_64; rv:124.0) Gecko/20100101 Firefox/124.0"
172.29.0.1 - - [03/Apr/2024:13:24:07 +0000] "GET /api HTTP/1.1" 200 14 "-" "Mozilla/5.0 (X11; Ubuntu; Linux x86_64; rv:124.0) Gecko/20100101 Firefox/124.0"
172.29.0.1 - - [03/Apr/2024:13:24:30 +0000] "GET /swagger HTTP/1.1" 200 965 "-" "Mozilla/5.0 (X11; Ubuntu; Linux x86_64; rv:124.0) Gecko/20100101 Firefox/124.0"
172.29.0.1 - - [03/Apr/2024:13:24:31 +0000] "GET /favicon.ico HTTP/1.1" 404 153 "http://localhost:8080/swagger" "Mozilla/5.0 (X11; Ubuntu; Linux x86_64; rv:124.0) Gecko/20100101 Firefox/124.0"
172.29.0.1 - - [03/Apr/2024:13:24:31 +0000] "GET /static/swagger.json?1712150670 HTTP/1.1" 404 153 "http://localhost:8080/swagger" "Mozilla/5.0 (X11; Ubuntu; Linux x86_64; rv:124.0) Gecko/20100101 Firefox/124.0"
172.29.0.1 - - [03/Apr/2024:13:24:49 +0000] "GET /api HTTP/1.1" 200 14 "-" "Mozilla/5.0 (X11; Ubuntu; Linux x86_64; rv:124.0) Gecko/20100101 Firefox/124.0"
172.29.0.1 - - [03/Apr/2024:13:24:49 +0000] "GET /favicon.ico HTTP/1.1" 404 153 "http://localhost:8080/api" "Mozilla/5.0 (X11; Ubuntu; Linux x86_64; rv:124.0) Gecko/20100101 Firefox/124.0"
172.29.0.1 - - [03/Apr/2024:13:24:50 +0000] "GET /api HTTP/1.1" 200 14 "-" "Mozilla/5.0 (X11; Ubuntu; Linux x86_64; rv:124.0) Gecko/20100101 Firefox/124.0"
172.29.0.1 - - [03/Apr/2024:13:28:45 +0000] "GET /api/address/search HTTP/1.1" 405 0 "-" "PostmanRuntime/7.37.0"
172.29.0.1 - - [03/Apr/2024:13:29:13 +0000] "GET /api HTTP/1.1" 200 14 "-" "PostmanRuntime/7.37.0"
172.29.0.1 - - [03/Apr/2024:13:29:14 +0000] "GET /api HTTP/1.1" 200 14 "-" "PostmanRuntime/7.37.0"
172.29.0.1 - - [03/Apr/2024:13:29:15 +0000] "GET /api HTTP/1.1" 200 14 "-" "PostmanRuntime/7.37.0"
172.29.0.1 - - [03/Apr/2024:13:29:16 +0000] "GET /api HTTP/1.1" 200 14 "-" "PostmanRuntime/7.37.0"
172.29.0.1 - - [03/Apr/2024:13:30:44 +0000] "GET /api/address/search HTTP/1.1" 405 0 "-" "PostmanRuntime/7.37.0"
172.29.0.1 - - [03/Apr/2024:13:30:52 +0000] "GET /api/address/geocode HTTP/1.1" 405 0 "-" "PostmanRuntime/7.37.0"
172.29.0.1 - - [03/Apr/2024:13:31:01 +0000] "GET /swagger HTTP/1.1" 200 965 "-" "PostmanRuntime/7.37.0"
172.29.0.1 - - [03/Apr/2024:13:31:04 +0000] "GET /swagger HTTP/1.1" 200 965 "-" "PostmanRuntime/7.37.0"
172.29.0.1 - - [03/Apr/2024:13:31:07 +0000] "GET /swagger HTTP/1.1" 200 965 "-" "PostmanRuntime/7.37.0"
